-------------------------------------------------------------------------------
Test set: com.example.math.service.GetEquationQuadraticNoneUseCaseTest
-------------------------------------------------------------------------------
Tests run: 5, Failures: 0, Errors: 0, Skipped: 0, Time elapsed: 0.126 s - in com.example.math.service.GetEquationQuadraticNoneUseCaseTest
